CSV Files – OSP External Data
…
CSV Files

Reading CSV Files

CSV (Comma-Separated Values) files are among the most widely used formats for storing and exchanging tabular data. They are simple text files in which each line represents a row in the table, and individual values (or fields) are separated by commas. The first line typically contains the column headers (variable names), followed by rows of observations.

CSV files are platform-independent and supported by virtually every spreadsheet, database, and statistical application, which makes them a standard choice for data export and sharing. The read_csv() function is used to read standard CSV files in which columns are separated by commas:

library(readr)
utmb <- read_csv(paste0(dataDir, "utmb_2017.csv"))
utmb

# A tibble: 2,535 × 33
    ...1   bib name  team  category  rank nationality time     timediff Delevret
   <dbl> <dbl> <chr> <chr> <chr>    <dbl> <chr>       <time>   <time>   <time>  
 1     0     4 D'HA… Salo… SE H         1 FR          19:01:54 00:00:00 01:11:50
 2     1     2 JORN… Salo… SE H         2 ES          19:16:59 00:15:05 01:10:00
 3     2    14 TOLL… Hoka  SE H         3 US          19:53:00 00:51:06 01:15:24
 4     3     7 THEV… Asics SE H         4 FR          20:03:39 01:01:45 01:11:51
 5     4     1 WALM… Hoka  SE H         5 US          20:11:38 01:09:44 01:09:59
 6     5    17 CAPE… The … SE H         6 ES          20:12:43 01:10:49 01:13:16
 7     6     9 BOWM… The … SE H         7 US          20:19:48 01:17:54 01:14:18
 8     7    13 GRIN… VIBR… SE H         8 LT          21:24:19 02:22:25 01:14:14
 9     8     8 MILL… THE … SE H         9 US          21:28:32 02:26:38 01:09:57
10     9    32 GAMI… COMP… SE H        10 ES          21:44:31 02:42:37 01:15:28
# ℹ 2,525 more rows
# ℹ 23 more variables: `St-Gervais` <time>, Contamines <time>,
#   `La Balme` <time>, Bonhomme <time>, Chapieux <time>, `Col Seigne` <time>,
#   `Lac Combal` <time>, `Mt-Favre` <time>, Checruit <time>, Courmayeur <time>,
#   Bertone <time>, Bonatti <time>, Arnouvaz <time>, `Col Ferret` <time>,
#   `La Fouly` <time>, `Champex La` <time>, `La Giète` <time>, Trient <time>,
#   `Les Tseppe` <time>, Vallorcine <time>, `Col Montet` <time>, …

In some cases, the first column in a CSV may be an unnecessary row index that we want to ignore. With readr, we can drop this column directly as we read the data, using the col_select argument:

utmb <- read_csv(paste0(dataDir, "utmb_2017.csv"), col_select = -1)
utmb

# A tibble: 2,535 × 32
     bib name        team  category  rank nationality time     timediff Delevret
   <dbl> <chr>       <chr> <chr>    <dbl> <chr>       <time>   <time>   <time>  
 1     4 D'HAENE Fr… Salo… SE H         1 FR          19:01:54 00:00:00 01:11:50
 2     2 JORNET BUR… Salo… SE H         2 ES          19:16:59 00:15:05 01:10:00
 3    14 TOLLEFSON … Hoka  SE H         3 US          19:53:00 00:51:06 01:15:24
 4     7 THEVENARD … Asics SE H         4 FR          20:03:39 01:01:45 01:11:51
 5     1 WALMSLEY J… Hoka  SE H         5 US          20:11:38 01:09:44 01:09:59
 6    17 CAPELL Pau  The … SE H         6 ES          20:12:43 01:10:49 01:13:16
 7     9 BOWMAN Dyl… The … SE H         7 US          20:19:48 01:17:54 01:14:18
 8    13 GRINIUS Ge… VIBR… SE H         8 LT          21:24:19 02:22:25 01:14:14
 9     8 MILLER Zach THE … SE H         9 US          21:28:32 02:26:38 01:09:57
10    32 GAMITO  Jo… COMP… SE H        10 ES          21:44:31 02:42:37 01:15:28
# ℹ 2,525 more rows
# ℹ 23 more variables: `St-Gervais` <time>, Contamines <time>,
#   `La Balme` <time>, Bonhomme <time>, Chapieux <time>, `Col Seigne` <time>,
#   `Lac Combal` <time>, `Mt-Favre` <time>, Checruit <time>, Courmayeur <time>,
#   Bertone <time>, Bonatti <time>, Arnouvaz <time>, `Col Ferret` <time>,
#   `La Fouly` <time>, `Champex La` <time>, `La Giète` <time>, Trient <time>,
#   `Les Tseppe` <time>, Vallorcine <time>, `Col Montet` <time>, …
…
By default, readr tries to guess the appropriate type for each column based on the first 1,000 rows. While often correct, this process isn’t infallible. For more control, we can explicitly define column types using the col_types argument, which accepts a specification created using cols() and type constructors such as col_character(), col_integer(), and col_factor():

utmb <- read_csv(
  file       = paste0(dataDir, "utmb_2017.csv"),
  col_select = -1,
  col_types  = cols(
    bib         = col_character(),
    category    = col_factor(),
    rank        = col_integer(),
    nationality = col_factor()
  )
)
utmb

# A tibble: 2,535 × 32
   bib   name        team  category  rank nationality time     timediff Delevret
   <chr> <chr>       <chr> <fct>    <int> <fct>       <time>   <time>   <time>  
 1 4     D'HAENE Fr… Salo… SE H         1 FR          19:01:54 00:00:00 01:11:50
 2 2     JORNET BUR… Salo… SE H         2 ES          19:16:59 00:15:05 01:10:00
 3 14    TOLLEFSON … Hoka  SE H         3 US          19:53:00 00:51:06 01:15:24
 4 7     THEVENARD … Asics SE H         4 FR          20:03:39 01:01:45 01:11:51
 5 1     WALMSLEY J… Hoka  SE H         5 US          20:11:38 01:09:44 01:09:59
 6 17    CAPELL Pau  The … SE H         6 ES          20:12:43 01:10:49 01:13:16
 7 9     BOWMAN Dyl… The … SE H         7 US          20:19:48 01:17:54 01:14:18
 8 13    GRINIUS Ge… VIBR… SE H         8 LT          21:24:19 02:22:25 01:14:14
 9 8     MILLER Zach THE … SE H         9 US          21:28:32 02:26:38 01:09:57
10 32    GAMITO  Jo… COMP… SE H        10 ES          21:44:31 02:42:37 01:15:28
# ℹ 2,525 more rows
# ℹ 23 more variables: `St-Gervais` <time>, Contamines <time>,
#   `La Balme` <time>, Bonhomme <time>, Chapieux <time>, `Col Seigne` <time>,
#   `Lac Combal` <time>, `Mt-Favre` <time>, Checruit <time>, Courmayeur <time>,
#   Bertone <time>, Bonatti <time>, Arnouvaz <time>, `Col Ferret` <time>,
#   `La Fouly` <time>, `Champex La` <time>, `La Giète` <time>, Trient <time>,
#   `Les Tseppe` <time>, Vallorcine <time>, `Col Montet` <time>, …
…
Sometimes CSV files use a semicolon (;) instead of a comma as the column separator. These are typically read using read_csv2(), which is configured for this format:

boys <- read_csv2(paste0(dataDir, "boys_eu.csv"))
boys

# A tibble: 748 × 9
     age   hgt   wgt   bmi    hc gen   phb      tv reg  
   <dbl> <dbl> <dbl> <dbl> <dbl> <chr> <chr> <dbl> <chr>
 1 0.035  50.1  3.65  14.5  33.7 <NA>  <NA>     NA south
 2 0.038  53.5  3.37  11.8  35   <NA>  <NA>     NA south
 3 0.057  50    3.14  12.6  35.2 <NA>  <NA>     NA south
 4 0.06   54.5  4.27  14.4  36.7 <NA>  <NA>     NA south
 5 0.062  57.5  5.03  15.2  37.3 <NA>  <NA>     NA south
 6 0.068  55.5  4.66  15.1  37   <NA>  <NA>     NA south
 7 0.068  52.5  3.81  13.8  34.9 <NA>  <NA>     NA south
 8 0.071  53    3.89  13.8  35.8 <NA>  <NA>     NA west 
 9 0.071  55.1  3.88  12.8  36.8 <NA>  <NA>     NA west 
10 0.073  54.5  4.2   14.1  38   <NA>  <NA>     NA east 
# ℹ 738 more rows

As with standard CSVs, we can also specify column types explicitly. readr allows us to use a compact string format, where each character represents the type of a column (d for double, f for factor, etc.):

boys <- read_csv2(paste0(dataDir, "boys_eu.csv"), col_types = "dddddffdf")
boys

# A tibble: 748 × 9
     age   hgt   wgt   bmi    hc gen   phb      tv reg  
   <dbl> <dbl> <dbl> <dbl> <dbl> <fct> <fct> <dbl> <fct>
 1 0.035  50.1  3.65  14.5  33.7 <NA>  <NA>     NA south
 2 0.038  53.5  3.37  11.8  35   <NA>  <NA>     NA south
 3 0.057  50    3.14  12.6  35.2 <NA>  <NA>     NA south
 4 0.06   54.5  4.27  14.4  36.7 <NA>  <NA>     NA south
 5 0.062  57.5  5.03  15.2  37.3 <NA>  <NA>     NA south
 6 0.068  55.5  4.66  15.1  37   <NA>  <NA>     NA south
 7 0.068  52.5  3.81  13.8  34.9 <NA>  <NA>     NA south
 8 0.071  53    3.89  13.8  35.8 <NA>  <NA>     NA west 
 9 0.071  55.1  3.88  12.8  36.8 <NA>  <NA>     NA west 
10 0.073  54.5  4.2   14.1  38   <NA>  <NA>     NA east 
# ℹ 738 more rows
…
